{
    "id": "5977a69476371a0001a1d1ef",
    "name":"Group-Ops",
    "type":"telegram-bot",
    "config":{
        "bot_token": "123456:ABC-DEF1234ghIkl-zyx57W2v1u123ew11"
    },
    "recipients": [
        "-246367260"
    ]
}